Content-Type: text/plain; charset="utf-8"
MIME-Version: 1.0
Content-Transfer-Encoding: 8bit
Subject: =?utf-8?b?0J/RgNC40LLQtdGCIHRlc3RhY3RpdmU3?=
From: mail@yandex.ru
To: fwafkaflaw@yandex.ru
Date: Mon, 20 Nov 2023 20:04:26 -0000
Message-ID: <170051066681.1992.14091974767393806806@MSI>

Для активации ползователя перейдите по ссылке:
http://127.0.0.1:8000/auth/activate/testactive7
-------------------------------------------------------------------------------
